<?xml version="1.0" standalone="no"?>
<!DOCTYPE svg PUBLIC "-//W3C//DTD SVG 20010904//EN"
 "http://www.w3.org/TR/2001/REC-SVG-20010904/DTD/svg10.dtd">
<svg version="1.0" xmlns="http://www.w3.org/2000/svg"
 width="500.000000pt" height="500.000000pt" viewBox="0 0 500.000000 500.000000"
 preserveAspectRatio="xMidYMid meet">
<metadata>
Created by potrace 1.11, written by Peter Selinger 2001-2013
</metadata>
<g transform="translate(0.000000,500.000000) scale(0.100000,-0.100000)"
fill="#000000" stroke="none">
<path d="M0 2500 l0 -2500 2500 0 2500 0 0 2500 0 2500 -2500 0 -2500 0 0
-2500z m3350 145 l0 -865 -850 0 -850 0 0 865 0 865 850 0 850 0 0 -865z"/>
<path d="M1690 2645 l0 -825 810 0 810 0 0 825 0 825 -810 0 -810 0 0 -825z
m1180 162 c5 -406 5 -406 48 -407 9 0 12 -29 12 -114 l0 -113 -46 -7 c-134
-18 -213 12 -229 86 l-7 29 -48 -45 c-87 -82 -224 -98 -344 -41 -224 106 -264
483 -69 655 111 97 300 92 386 -9 l27 -33 0 190 c0 104 3 192 7 196 4 3 63 5
132 4 l126 -3 5 -388z"/>
<path d="M2403 2679 c-82 -52 -90 -206 -14 -266 53 -42 136 -35 185 14 24 23
26 33 26 104 0 69 -3 81 -26 109 -52 61 -114 76 -171 39z"/>
</g>
</svg>
